{
  "prepare_queue": {
    "installed": [],
    "uninstalled": []
  },
  "config_munge": {
    "files": {}
  },
  "installed_plugins": {
    "com.bunkerpalace.cordova.YoutubeVideoPlayer": {
      "PACKAGE_NAME": "com.doctor.click"
    },
    "cordova-plugin-advanced-geolocation": {
      "PACKAGE_NAME": "com.doctor.click"
    },
    "cordova-plugin-camera": {
      "PACKAGE_NAME": "com.doctor.click"
    },
    "cordova-plugin-device": {
      "PACKAGE_NAME": "com.doctor.click"
    },
    "cordova-plugin-geolocation": {
      "PACKAGE_NAME": "com.doctor.click"
    },
    "cordova-plugin-media-capture": {
      "PACKAGE_NAME": "com.doctor.click"
    },
    "cordova-plugin-network-information": {
      "PACKAGE_NAME": "com.doctor.click"
    },
    "cordova-plugin-statusbar": {
      "PACKAGE_NAME": "com.doctor.click"
    },
    "cordova-plugin-wkwebview-engine": {
      "PACKAGE_NAME": "com.doctor.click"
    },
    "onesignal-cordova-plugin": {
      "PACKAGE_NAME": "com.doctor.click"
    }
  },
  "dependent_plugins": {
    "cordova-plugin-file": {
      "PACKAGE_NAME": "com.doctor.click"
    }
  }
}
