{
  "cordova-plugin-statusbar": {
    "source": {
      "type": "registry",
      "id": "https://github.com/apache/cordova-plugin-statusbar.git"
    },
    "is_top_level": true,
    "variables": {}
  },
  "cordova-plugin-googlemaps": {
    "source": {
      "type": "registry",
      "id": "cordova-plugin-googlemaps@2.3.6"
    },
    "is_top_level": true,
    "variables": {
      "API_KEY_FOR_ANDROID": "AIzaSyB-ac3xmSzZIrXLNF-46hKymj56tKQH-s0",
      "API_KEY_FOR_IOS": "AIzaSyB-ac3xmSzZIrXLNF-46hKymj56tKQH-s0"
    }
  },
  "cordova-plugin-wkwebview-engine": {
    "source": {
      "type": "registry",
      "id": "cordova-plugin-wkwebview-engine"
    },
    "is_top_level": true,
    "variables": {}
  },
  "com.bunkerpalace.cordova.YoutubeVideoPlayer": {
    "source": {
      "type": "registry",
      "id": "https://github.com/JonSmart/CordovaYoutubeVideoPlayer"
    },
    "is_top_level": true,
    "variables": {}
  },
  "cordova-plugin-stripe": {
    "source": {
      "type": "registry",
      "id": "https://github.com/zyramedia/cordova-plugin-stripe"
    },
    "is_top_level": true,
    "variables": {}
  },
  "onesignal-cordova-plugin": {
    "source": {
      "type": "registry",
      "id": "onesignal-cordova-plugin"
    },
    "is_top_level": true,
    "variables": {}
  },
  "cordova-plugin-network-information": {
    "source": {
      "type": "registry",
      "id": "cordova-plugin-network-information"
    },
    "is_top_level": true,
    "variables": {}
  },
  "cordova-plugin-device": {
    "source": {
      "type": "registry",
      "id": "cordova-plugin-device"
    },
    "is_top_level": true,
    "variables": {}
  },
  "cordova-plugin-camera": {
    "source": {
      "type": "registry",
      "id": "cordova-plugin-camera@4.1.0"
    },
    "is_top_level": true,
    "variables": {}
  },
  "cordova-plugin-media-capture": {
    "source": {
      "type": "registry",
      "id": "cordova-plugin-media-capture@3.0.3"
    },
    "is_top_level": true,
    "variables": {}
  },
  "cordova-plugin-file": {
    "source": {
      "type": "registry",
      "id": "cordova-plugin-file@^6.0.0"
    },
    "is_top_level": false,
    "variables": {}
  },
  "cordova-plugin-geolocation": {
    "source": {
      "type": "registry",
      "id": "cordova-plugin-geolocation@^4.0.2"
    },
    "is_top_level": true,
    "variables": {
      "GPS_REQUIRED": "false"
    }
  },
  "org.apache.cordova.geolocation": {
    "source": {
      "type": "registry",
      "id": "org.apache.cordova.geolocation@0.3.6"
    },
    "is_top_level": true,
    "variables": {}
  },
  "cordova-plugin-advanced-geolocation": {
    "source": {
      "type": "registry",
      "id": "cordova-plugin-advanced-geolocation"
    },
    "is_top_level": true,
    "variables": {}
  }
}